﻿{
  "iisSettings": {
    "windowsAuthentication": false, 
    "anonymousAuthentication": true,
    "iisExpress": {
        "applicationUrl": "http://localhost:63560",
        "sslPort": 0
    }
  },
  "profiles": {
    "IIS Express": {
      "commandName": "IISExpress",
      "launchBrowser": true,
      "environmentVariables": {
        "ASPNETCORE_ENVIRONMENT": "localhost"
      }
    },
    "Jubamo": {
      "commandName": "Project",
      "launchBrowser": true,
      "applicationUrl": "http://localhost:5000",
      "environmentVariables": {
        "ASPNETCORE_ENVIRONMENT": "Development"
      }
    }
  }
}